blinky.vcd
$comment Generated by Amaranth $end
$date 2026-04-27 14:24:59.218233 $end
$timescale 1 fs $end
$scope module bench $end
$scope module top $end
$var wire 1 ! clk $end
$var wire 1 " rst $end
$var wire 3 # counter $end
$var wire 1 $ led $end
$upscope $end
$upscope $end
$enddefinitions $end
#0
$dumpvars
0!
0"
b0 #
0$
$end
#500000000
1!
b1 #
#1000000000
0!
#1500000000
1!
b10 #
#2000000000
0!
#2500000000
1!
b11 #
#3000000000
0!
#3500000000
1!
b100 #
#4000000000
0!
#4500000000
1!
1$
b0 #
#5000000000
0!
#5500000000
1!
b1 #
#6000000000
0!
#6500000000
1!
b10 #
#7000000000
0!
#7500000000
1!
b11 #
#8000000000
0!
#8500000000
1!
b100 #
#9000000000
0!
#9500000000
1!
0$
b0 #
#10000000000
0!
#10500000000
1!
b1 #
#11000000000
0!
#11500000000
1!
b10 #
#12000000000
0!
#12500000000
1!
b11 #
#13000000000
0!
#13500000000
1!
b100 #
#14000000000
0!
#14500000000
1!
1$
b0 #
#15000000000
0!
#15500000000
1!
b1 #
#16000000000
0!
#16500000000
1!
b10 #
#17000000000
0!
#17500000000
1!
b11 #
#18000000000
0!
#18500000000
1!
b100 #
#19000000000
0!
#19500000000
1!
0$
b0 #
#20000000000
0!
#20500000000
1!
b1 #
#21000000000
0!
#21500000000
1!
b10 #
#22000000000
0!
#22500000000
1!
b11 #
#23000000000
0!
#23500000000
1!
b100 #
#24000000000
0!
#24500000000
1!
1$
b0 #
#25000000000
0!
#25500000000
1!
b1 #
#26000000000
0!
#26500000000
1!
b10 #
#27000000000
0!
#27500000000
1!
b11 #
#28000000000
0!
#28500000000
1!
b100 #
#29000000000
0!
#29500000000
1!
0$
b0 #
#30000000000
0!
#30500000000
1!
b1 #
